Year,Actual GDP,Jorda-Taylor estimate,Budget 2010 forecast
31/12/2007,100,,100
31/12/2008,99.02,,99.02
31/12/2009,95.12779553,,94.18210863
31/12/2010,96.81469649,96.81469649,95.42172524
31/12/2011,97.69648562,98.15654952,97.87539936
31/12/2012,97.67092652,99.53674121,100.5846645
31/12/2013,98.24600639,101.0702875,103.4472843
